﻿{
  "issues": [
    {
      "id": 0,
      "title": "issue 1",
      "text": "<span style='font-size: 12pt;'> text </span>",
      "tags": [ "bug" ]
    },
    {
      "id": 1,
      "title": "issue 2",
      "text": "<span style='font-size: 12pt;'> text </span>",
      "tags": [ "fixed", "enhancement" ]
    },
    {
      "id": 2,
      "title": "issue 3",
      "text": "<span style='font-size: 12pt;'> text </span>",
      "tags": [ "need-repro" ]
    },
    {
      "id": 3,
      "title": "issue 4",
      "text": "<span style='font-size: 12pt;'> text </span>",
      "tags": [ "issue", "need-repro", "fixed" ]
    },
    {
      "id": 4,
      "title": "issue 5",
      "text": "<span style='font-size: 12pt;'> text </span>",
      "tags": [ "issue", "fixed" ]
    },
    {
      "id": 5,
      "title": "issue 6",
      "text": "<span style='font-size: 12pt;'> text </span>",
      "tags": [ "enhancement" ]
    },
    {
      "id": 6,
      "title": "issue 7",
      "text": "<span style='font-size: 12pt;'> text </span>",
      "tags": [ "bug", "issue" ]
    },
    {
      "id": 7,
      "title": "issue 8",
      "text": "<span style='font-size: 12pt;'> text </span>",
      "tags": [ "issue" ]
    },
    {
      "id": 8,
      "title": "issue 9",
      "text": "<span style='font-size: 12pt;'> text </span>",
      "tags": [ "proposal", "enhancement" ]
    },
    {
      "id": 9,
      "title": "issue 10",
      "text": "<span style='font-size: 12pt;'> text </span>",
      "tags": [ "fixed", "bug" ]
    },
    {
      "id": 10,
      "title": "issue 11",
      "text": "<span style='font-size: 12pt;'> text </span>",
      "tags": [ "issue" ]
    },
    {
      "id": 11,
      "title": "issue 12",
      "text": "<span style='font-size: 12pt;'> text </span>",
      "tags": [ "need-repro" ]
    },
    {
      "id": 12,
      "title": "issue 13",
      "text": "<span style='font-size: 12pt;'> text </span>",
      "tags": [ "need-repro" ]
    },
    {
      "id": 13,
      "title": "issue 14",
      "text": "<span style='font-size: 12pt;'> text </span>",
      "tags": [ "enhancement", "issue" ]
    },
    {
      "id": 14,
      "title": "issue 15",
      "text": "<span style='font-size: 12pt;'> text </span>",
      "tags": [ "enhancement", "bug" ]
    },
    {
      "id": 15,
      "title": "issue 16",
      "text": "<span style='font-size: 12pt;'> text </span>",
      "tags": [ "bug" ]
    },
    {
      "id": 16,
      "title": "issue 17",
      "text": "<span style='font-size: 12pt;'> text </span>",
      "tags": [ "enhancement", "issue" ]
    },
    {
      "id": 17,
      "title": "issue 18",
      "text": "<span style='font-size: 12pt;'> text </span>",
      "tags": [ "fixed" ]
    },
    {
      "id": 18,
      "title": "issue 19",
      "text": "<span style='font-size: 12pt;'> text </span>",
      "tags": [ "bug" ]
    },
    {
      "id": 19,
      "title": "issue 20",
      "text": "<span style='font-size: 12pt;'> text </span>",
      "tags": [ "need-repro", "bug", "enhancement" ]
    }
  ],

  "comments": [
    [
      {
        "id": 0,
        "text": "<p>Comment 1</p><p>text text text...</p>"
      },
      {
        "id": 1,
        "text": "<p>Comment 2</p><p>text text text...</p>"
      }
    ],
    [
      {
        "id": 3,
        "text": "<p>Comment 1</p><p>text text text...</p>"
      },
      {
        "id": 4,
        "text": "<p>Comment 2</p><p>text text text...</p>"
      }
    ],
    [
      {
        "id": 5,
        "text": "<p>Comment 1</p><p>text text text...</p>"
      },
      {
        "id": 6,
        "text": "<p>Comment 2</p><p>text text text...</p>"
      }
    ],
    [
      {
        "id": 7,
        "text": "<p>Comment 1</p><p>text text text...</p>"
      },
      {
        "id": 8,
        "text": "<p>Comment 2</p><p>text text text...</p>"
      }
    ],
    [
      {
        "id": 9,
        "text": "<p>Comment 1</p><p>text text text...</p>"
      },
      {
        "id": 10,
        "text": "<p>Comment 2</p><p>text text text...</p>"
      }
    ],
    [
      {
        "id": 11,
        "text": "<p>Comment 1</p><p>text text text...</p>"
      },
      {
        "id": 12,
        "text": "<p>Comment 2</p><p>text text text...</p>"
      }
    ],
    [
      {
        "id": 13,
        "text": "<p>Comment 1</p><p>text text text...</p>"
      },
      {
        "id": 14,
        "text": "<p>Comment 2</p><p>text text text...</p>"
      }
    ],
    [
      {
        "id": 15,
        "text": "<p>Comment 1</p><p>text text text...</p>"
      },
      {
        "id": 16,
        "text": "<p>Comment 2</p><p>text text text...</p>"
      }
    ],
    [
      {
        "id": 17,
        "text": "<p>Comment 1</p><p>text text text...</p>"
      },
      {
        "id": 18,
        "text": "<p>Comment 2</p><p>text text text...</p>"
      }
    ],
    [
      {
        "id": 19,
        "text": "<p>Comment 1</p><p>text text text...</p>"
      },
      {
        "id": 20,
        "text": "<p>Comment 2</p><p>text text text...</p>"
      }
    ],
    [
      {
        "id": 21,
        "text": "<p>Comment 1</p><p>text text text...</p>"
      },
      {
        "id": 22,
        "text": "<p>Comment 2</p><p>text text text...</p>"
      }
    ],
    [
      {
        "id": 23,
        "text": "<p>Comment 1</p><p>text text text...</p>"
      },
      {
        "id": 24,
        "text": "<p>Comment 2</p><p>text text text...</p>"
      }
    ],
    [
      {
        "id": 25,
        "text": "<p>Comment 1</p><p>text text text...</p>"
      },
      {
        "id": 26,
        "text": "<p>Comment 2</p><p>text text text...</p>"
      }
    ],
    [
      {
        "id": 27,
        "text": "<p>Comment 1</p><p>text text text...</p>"
      },
      {
        "id": 28,
        "text": "<p>Comment 2</p><p>text text text...</p>"
      }
    ],
    [
      {
        "id": 29,
        "text": "<p>Comment 1</p><p>text text text...</p>"
      },
      {
        "id": 30,
        "text": "<p>Comment 2</p><p>text text text...</p>"
      }
    ],
    [
      {
        "id": 31,
        "text": "<p>Comment 1</p><p>text text text...</p>"
      },
      {
        "id": 32,
        "text": "<p>Comment 2</p><p>text text text...</p>"
      }
    ],
    [
      {
        "id": 33,
        "text": "<p>Comment 1</p><p>text text text...</p>"
      },
      {
        "id": 34,
        "text": "<p>Comment 2</p><p>text text text...</p>"
      }
    ],
    [
      {
        "id": 35,
        "text": "<p>Comment 1</p><p>text text text...</p>"
      },
      {
        "id": 36,
        "text": "<p>Comment 2</p><p>text text text...</p>"
      }
    ],
    [
      {
        "id": 37,
        "text": "<p>Comment 1</p><p>text text text...</p>"
      },
      {
        "id": 38,
        "text": "<p>Comment 2</p><p>text text text...</p>"
      }
    ],
    [
      {
        "id": 39,
        "text": "<p>Comment 1</p><p>text text text...</p>"
      },
      {
        "id": 40,
        "text": "<p>Comment 2</p><p>text text text...</p>"
      }
    ],
  ]
}
